{
  "cordova-plugin-file": {
    "source": {
      "type": "registry",
      "id": "cordova-plugin-file@>=2.0.0"
    },
    "is_top_level": false,
    "variables": {}
  },
  "cordova-plugin-statusbar": {
    "source": {
      "type": "registry",
      "id": "cordova-plugin-statusbar@2.4.2"
    },
    "is_top_level": true,
    "variables": {}
  },
  "cordova-plugin-splashscreen": {
    "source": {
      "type": "registry",
      "id": "cordova-plugin-splashscreen@5.0.2"
    },
    "is_top_level": true,
    "variables": {}
  },
  "cordova-plugin-ionic-keyboard": {
    "source": {
      "type": "registry",
      "id": "cordova-plugin-ionic-keyboard@^2.0.5"
    },
    "is_top_level": true,
    "variables": {}
  },
  "cordova-plugin-network-information": {
    "source": {
      "type": "registry",
      "id": "cordova-plugin-network-information@^3.0.0"
    },
    "is_top_level": true,
    "variables": {}
  },
  "cordova-plugin-androidx-adapter": {
    "source": {
      "type": "registry",
      "id": "cordova-plugin-androidx-adapter@^1.1.3"
    },
    "is_top_level": true,
    "variables": {}
  },
  "cordova-plugin-device": {
    "source": {
      "type": "registry",
      "id": "cordova-plugin-device@2.0.2"
    },
    "is_top_level": true,
    "variables": {}
  },
  "cordova-plugin-ionic-webview": {
    "source": {
      "type": "registry",
      "id": "cordova-plugin-ionic-webview@^4.0.0"
    },
    "is_top_level": true,
    "variables": {
      "ANDROID_SUPPORT_ANNOTATIONS_VERSION": "27.+"
    }
  },
  "cordova-sqlite-storage": {
    "source": {
      "type": "registry",
      "id": "cordova-sqlite-storage@^6.0.0"
    },
    "is_top_level": true,
    "variables": {}
  },
  "cordova-plugin-androidx": {
    "source": {
      "type": "registry",
      "id": "cordova-plugin-androidx@^3.0.0"
    },
    "is_top_level": true,
    "variables": {}
  },
  "cordova-plugin-advanced-http": {
    "source": {
      "type": "registry",
      "id": "cordova-plugin-advanced-http"
    },
    "is_top_level": true,
    "variables": {
      "ANDROIDBLACKLISTSECURESOCKETPROTOCOLS": "SSLv3,TLSv1"
    }
  }
}